Análise de dados do GEM usando R
…
OBS.: O objeto |> se chama pipe. Ele é um elemento muito comum na estrutura do tidyverse. O que ele significa? Ele é artifício para encadear funções no R. Com o passar do seu uso ficará mais claro. O atalho para o pipe é Ctrl + Shift + M.

Função filter

Esta função serve para filtrar apenas observações (linhas) de acordo com um critério.

Vamos supor que eu queira pegar apenas as observações do Brasil.

GEM_APS |> 
  filter(economy == 'Brazil')

# A tibble: 23 × 18
    code economy  year perceived_opportunities perceived_capabilities
   <dbl> <chr>   <dbl>                   <dbl>                  <dbl>
 1    55 Brazil   2023                    65.4                   65.9
 2    55 Brazil   2022                    67.9                   69.2
 3    55 Brazil   2021                    54.8                   66.7
 4    55 Brazil   2020                    57.3                   67.8
 5    55 Brazil   2019                    46.4                   62.0
 6    55 Brazil   2018                    31.4                   54.3
 7    55 Brazil   2017                    46.4                   55.9
 8    55 Brazil   2016                    40.2                   53.6
 9    55 Brazil   2015                    42.4                   58.3
10    55 Brazil   2014                    55.5                   50.0
# ℹ 13 more rows
# ℹ 13 more variables: fear_failure_rate <dbl>,
#   entrepreneurial_intentions <dbl>, tea <dbl>,
#   established_business_ownership <dbl>,
#   entrepreneurial_employee_activity <dbl>, motivational_index <dbl>,
#   female_male_TEA <dbl>, female_male_opportunity_TEA <dbl>,
#   high_job_creation_expectation <dbl>, innovation <dbl>, …

Vamos supor que eu queira pegar observações do Brasil ou Argentina. Para isso, vamos usar o conector ou (simbolizado por |). Vou aproveitar e colocar para ordenar pela coluna ano (year) usando a função arrange.

GEM_APS |> 
  filter(economy == 'Brazil' | 
         economy == 'Argentina') |> 
  arrange(year)

# A tibble: 41 × 18
    code economy    year perceived_opportunities perceived_capabilities
   <dbl> <chr>     <dbl>                   <dbl>                  <dbl>
 1    54 Argentina  2001                    19.8                   54.8
 2    55 Brazil     2001                    40.6                   54.3
 3    54 Argentina  2002                    20.7                   66.8
 4    55 Brazil     2002                    41.4                   55.0
 5    54 Argentina  2003                    65.1                   62.8
 6    55 Brazil     2003                    41.4                   50.8
 7    54 Argentina  2004                    56.6                   58.6
 8    55 Brazil     2004                    43.8                   55.7
 9    54 Argentina  2005                    57.5                   55.1
10    55 Brazil     2005                    42.7                   50.2
# ℹ 31 more rows
# ℹ 13 more variables: fear_failure_rate <dbl>,
#   entrepreneurial_intentions <dbl>, tea <dbl>,
#   established_business_ownership <dbl>,
#   entrepreneurial_employee_activity <dbl>, motivational_index <dbl>,
#   female_male_TEA <dbl>, female_male_opportunity_TEA <dbl>,
#   high_job_creation_expectation <dbl>, innovation <dbl>, …

Viu como o pipe funciona? Eu fiz uma operação primeiro (filtro) e depois consegui encadear com outra função (arrange).

Vamos supor que eu queira agora pegar os dados de Brasil e Argentina, mas eu queira pegar apenas observações 2010 adiante. Agora vamos ter que usar também o conector and’, simbolizado por &.

GEM_APS |> 
  filter((economy == 'Brazil' | 
         economy == 'Argentina') & year >= 2010)

# A tibble: 23 × 18
    code economy    year perceived_opportunities perceived_capabilities
   <dbl> <chr>     <dbl>                   <dbl>                  <dbl>
 1    55 Brazil     2023                    65.4                   65.9
 2    55 Brazil     2022                    67.9                   69.2
 3    55 Brazil     2021                    54.8                   66.7
 4    55 Brazil     2020                    57.3                   67.8
 5    55 Brazil     2019                    46.4                   62.0
 6    54 Argentina  2018                    35.9                   48.8
 7    55 Brazil     2018                    31.4                   54.3
 8    54 Argentina  2017                    29.6                   43.1
 9    55 Brazil     2017                    46.4                   55.9
10    54 Argentina  2016                    44.3                   61.2
# ℹ 13 more rows
# ℹ 13 more variables: fear_failure_rate <dbl>,
#   entrepreneurial_intentions <dbl>, tea <dbl>,
#   established_business_ownership <dbl>,
#   entrepreneurial_employee_activity <dbl>, motivational_index <dbl>,
#   female_male_TEA <dbl>, female_male_opportunity_TEA <dbl>,
#   high_job_creation_expectation <dbl>, innovation <dbl>, …
…
Como converter?

GEM_APS$female_male_TEA <- as.double(GEM_APS$female_male_TEA)

class(GEM_APS$female_male_TEA)

[1] "numeric"

Agora é possível usar a função mutate.

GEM_APS |> 
  mutate(perc_fem_male_TEA = female_male_TEA * 100) |> 
  select(year, economy, perc_fem_male_TEA) 

# A tibble: 1,128 × 3
    year economy       perc_fem_male_TEA
   <dbl> <chr>                     <dbl>
 1  2023 United States                84
 2  2023 South Africa                 76
 3  2023 Greece                       79
 4  2023 Netherlands                  80
 5  2023 France                       72
 6  2023 Spain                        81
 7  2023 Hungary                      56
 8  2023 Italy                        61
 9  2023 Romania                      71
10  2023 Switzerland                  90
# ℹ 1,118 more rows
…
Note que as duas bases possuem variáveis equivalentes. Na base wgi a gente tem a variável code já a base gem_aps19 tem a variável abrev.

A partir disso, é possível fazer um join.

gem_wgi <- 
  gem_aps19 |> 
  left_join(wgi, by = c("abrev"="code"))

gem_wgi

# A tibble: 50 × 24
   cod_pais economy   continent abrev  year perceived_opportunities
      <dbl> <chr>     <chr>     <chr> <dbl>                   <dbl>
 1      374 Armenia   Asia      ARM    2019                    53.9
 2       61 Australia Oceania   AUS    2019                    45.7
 3      375 Belarus   Europa    BLR    2019                    29.5
 4       55 Brazil    America   BRA    2019                    46.4
 5      101 Canada    America   CAN    2019                    67.1
 6       56 Chile     America   CHL    2019                    47.6
 7       86 China     Asia      CHN    2019                    74.9
 8       57 Colombia  America   COL    2019                    46.7
 9      385 Croatia   Europa    HRV    2019                    55.7
10      357 Cyprus    Europa    CYP    2019                    38.5
# ℹ 40 more rows
# ℹ 18 more variables: perceived_capabitilities <dbl>, fear_failure <dbl>,
#   entrepreneurial_intentions <dbl>, tea <dbl>, established_ownership <dbl>,
#   entrepreneurial_employee_Activity <dbl>, female_male_tea <dbl>,
#   high_job_creation_expectation <dbl>, business_service_sector <dbl>,
#   high_status_successful_entrepreneurs <dbl>,
#   entrepreneurship_as_good_carrer_choice <dbl>, country <chr>, …
…
